Bootstrap Sample from a Population Grouped by Items — bootstrap_samples • semanticprimeR
…
samples <- bootstrap_samples(start = 20, stop = 100,
  increase = 5, population = pops,
  replace = TRUE, grouping_items = "item")

# notice 20 rows per item
samples[[1]]
#> # A tibble: 600 × 2
#> # Groups:   item [30]
#>     item score
#>    <int> <dbl>
#>  1     1     5
#>  2     1     1
#>  3     1     1
#>  4     1     7
#>  5     1     5
#>  6     1     1
#>  7     1     5
#>  8     1     3
#>  9     1     2
#> 10     1     2
#> # ℹ 590 more rows
…
